[
    {
        "id": 1,
        "orderId": "01199100",
        "customerAccount": "akbar@gmail.com",
        "customerName": "Akbar ",
        "customerPhone": "081383149056",
        "totPayment": "29000",
        "orderDate": "17 Februari 2020 17:17",
        "status": "DELIVERED",
        "paymentMethod": "TRANSFER",
        "shippingMethod": "Ambil di tempat",
        "shippingAddress": "RUMAH - Jl. Cilendek Indah no. 24, Cilendek Barat, Kecamatan Bogor Barat",
        "penerima": "Rini",
        "product": "Pisang Cavendish",
        "quantity": "3",
        "totalWeight": "3 kg",
        "warehouseFulfill": "SC FRESH CATEGORY BOGOR - Jl. Brigjen Saptaji Hadiprawira No. 93 Cilendek, Bogor Barat, Menteng Menteng, Bogor Barat, Kota Bogor, Jawa Barat Menteng, Bogor Barat, Kota Bogor, Jawa Barat",
        "bankAccountOwner": "-",
        "bankSource": "MANDIRI",
        "accountNumber": "707",
        "bankDestination": "MANDIRI - PT Solusi Pangan Perwiratama",
        "amount": 29000,
        "total": 29000,
        "statusOrder": "open"
    },
    {
        "id": 2,
        "orderId": "01199103",
        "customerAccount": "alfarizi@gmail.com",
        "customerName": "alfarizi ",
        "customerPhone": "081383149056",
        "totPayment": "29000",
        "orderDate": "17 Februari 2020 17:17",
        "status": "PAID",
        "paymentMethod": "TRANSFER",
        "shippingMethod": "Ambil di tempat",
        "shippingAddress": "RUMAH - Jl. Cilendek Indah no. 24, Cilendek Barat, Kecamatan Bogor Barat",
        "penerima": "Rini",
        "product": "Pisang Cavendish",
        "quantity": "3",
        "totalWeight": "3 kg",
        "warehouseFulfill": "SC FRESH CATEGORY BOGOR - Jl. Brigjen Saptaji Hadiprawira No. 93 Cilendek, Bogor Barat, Menteng Menteng, Bogor Barat, Kota Bogor, Jawa Barat Menteng, Bogor Barat, Kota Bogor, Jawa Barat",
        "bankAccountOwner": "-",
        "bankSource": "MANDIRI",
        "accountNumber": "707",
        "bankDestination": "MANDIRI - PT Solusi Pangan Perwiratama",
        "amount": 29000,
        "total": 29000,
        "statusOrder": "closed"
    },
    {
        "id": 3,
        "orderId": "01199102",
        "customerAccount": "hapis@gmail.com",
        "customerName": "Hapis",
        "customerPhone": "081383149056",
        "totPayment": "29000",
        "orderDate": "17 Februari 2020 17:17",
        "status": "PAID",
        "paymentMethod": "TRANSFER",
        "shippingMethod": "Ambil di tempat",
        "shippingAddress": "RUMAH - Jl. Cilendek Indah no. 24, Cilendek Barat, Kecamatan Bogor Barat",
        "penerima": "Rini",
        "product": "Pisang Cavendish",
        "quantity": "3",
        "totalWeight": "3 kg",
        "warehouseFulfill": "SC FRESH CATEGORY BOGOR - Jl. Brigjen Saptaji Hadiprawira No. 93 Cilendek, Bogor Barat, Menteng Menteng, Bogor Barat, Kota Bogor, Jawa Barat Menteng, Bogor Barat, Kota Bogor, Jawa Barat",
        "bankAccountOwner": "-",
        "bankSource": "MANDIRI",
        "accountNumber": "707",
        "bankDestination": "MANDIRI - PT Solusi Pangan Perwiratama",
        "amount": 29000,
        "total": 29000,
        "statusOrder": "closed"
    },
    {
        "id": 4,
        "orderId": "01199105",
        "customerAccount": "ahmad@gmail.com",
        "customerName": "Ahmad",
        "customerPhone": "081383149056",
        "totPayment": "29000",
        "orderDate": "17 Februari 2020 17:17",
        "status": "PAID",
        "paymentMethod": "TRANSFER",
        "shippingMethod": "Ambil di tempat",
        "shippingAddress": "RUMAH - Jl. Cilendek Indah no. 24, Cilendek Barat, Kecamatan Bogor Barat",
        "penerima": "Rini",
        "product": "Pisang Cavendish",
        "quantity": "3",
        "totalWeight": "3 kg",
        "warehouseFulfill": "SC FRESH CATEGORY BOGOR - Jl. Brigjen Saptaji Hadiprawira No. 93 Cilendek, Bogor Barat, Menteng Menteng, Bogor Barat, Kota Bogor, Jawa Barat Menteng, Bogor Barat, Kota Bogor, Jawa Barat",
        "bankAccountOwner": "-",
        "bankSource": "MANDIRI",
        "accountNumber": "707",
        "bankDestination": "MANDIRI - PT Solusi Pangan Perwiratama",
        "amount": 29000,
        "total": 29000,
        "statusOrder": "closed"
    }
]