[
    {
        "id": "1",
        "email": "akbaralfarizi@gmail.com",
        "fullname": "Akbar Alfarizi",
        "deposit": "1000000"
    },
    {
        "id": "2",
        "email": "alfariziakbar@gmail.com",
        "fullname": "Alfarizi Akbar ",
        "deposit": "1000000"
    }
]